<?xml version="1.0" standalone="no"?>
<!DOCTYPE svg PUBLIC "-//W3C//DTD SVG 1.1//EN" "http://www.w3.org/Graphics/SVG/1.1/DTD/svg11.dtd" >
<!--
2020-3-11: Created with FontForge (http://fontforge.org)
-->
<svg xmlns="http://www.w3.org/2000/svg" xmlns:xlink="http://www.w3.org/1999/xlink" version="1.1">
<metadata>
Created by FontForge 20170731 at Wed Mar 11 20:37:26 2020
 By root

</metadata>
<defs>
<font id="Flaticon" horiz-adv-x="512" >
  <font-face 
    font-family="Flaticon"
    font-weight="400"
    font-stretch="normal"
    units-per-em="512"
    panose-1="2 0 5 3 0 0 0 0 0 0"
    ascent="448"
    descent="-64"
    bbox="-2.16606e-06 -64.0009 512 448"
    underline-thickness="25.6"
    underline-position="-51.2"
    unicode-range="U+0020-F106"
  />
    <missing-glyph />
    <glyph glyph-name="space" unicode=" " horiz-adv-x="200" 
 />
    <glyph glyph-name="002-minus" unicode="&#xf101;" 
d="M491.841 291.573c12.9785 -30.625 20.1611 -64.3174 20.1592 -99.5732c0.00683594 -52.8936 -16.166 -102.22 -43.791 -143.057c-27.625 -40.8506 -66.6934 -73.3145 -112.638 -92.7852c-30.625 -12.9785 -64.3184 -20.1602 -99.5713 -20.1582
c-52.8926 -0.00683594 -102.217 16.166 -143.055 43.79c-40.8496 27.624 -73.3154 66.6914 -92.7861 112.637c-12.9785 30.625 -20.1611 64.3184 -20.1592 99.5732c-0.00683594 52.8965 16.167 102.221 43.791 143.057c27.625 40.8506 66.6934 73.3135 112.638 92.7852
c30.625 12.9785 64.3174 20.1602 99.5713 20.1582c52.8926 0.00683594 102.217 -16.166 143.055 -43.79c40.8506 -27.624 73.3154 -66.6914 92.7861 -112.637zM460.413 105.743c11.2354 26.5254 17.4512 55.6367 17.4531 86.2559
c-0.00683594 45.9189 -13.9814 88.4961 -37.9346 123.939c-23.9531 35.4307 -57.8955 63.625 -97.6768 80.4746c-26.5264 11.2363 -55.6357 17.4521 -86.2549 17.4541c-45.916 -0.00683594 -88.4941 -13.9805 -123.937 -37.9346
c-35.4316 -23.9512 -63.625 -57.8945 -80.4766 -97.6758c-11.2354 -26.5254 -17.4521 -55.6367 -17.4541 -86.2568c0.00683594 -45.917 13.9814 -88.4951 37.9365 -123.937c23.9531 -35.4316 57.8955 -63.624 97.6768 -80.4756
c26.5264 -11.2363 55.6357 -17.4521 86.2549 -17.4541c45.916 0.00683594 88.4932 13.9805 123.936 37.9336c35.4316 23.9521 63.625 57.8945 80.4766 97.6758zM389.594 208.699c9.22363 0 16.7002 -7.47754 16.7002 -16.6992s-7.47656 -16.6992 -16.6992 -16.6992h-267.188
c-9.22266 0 -16.6992 7.47754 -16.6992 16.6992s7.47656 16.6992 16.6992 16.6992h267.188z" />
    <glyph glyph-name="005-smart-cart" unicode="&#xf103;" 
d="M494.93 350.852c9.49219 -10.8438 13.6211 -25.043 11.6289 -39.9844l-21.5156 -161.367c-1.89062 -14.1953 -9.18359 -27.4883 -20.5352 -37.4258c-11.3516 -9.93359 -25.4883 -15.4062 -39.8086 -15.4062h-83.0039
c-0.00390625 0 -0.00390625 -0.00390625 -0.0078125 -0.00390625c-0.0078125 0 -0.0117188 0.00390625 -0.015625 0.00390625h-96.3672c-0.0078125 0 -0.0117188 -0.00390625 -0.015625 -0.00390625s-0.0078125 0.00390625 -0.0117188 0.00390625h-116.746l3.13672 -23.5352
c1.9375 -14.5273 15.9531 -26.8008 30.6094 -26.8008h302.59c8.28125 0 15 -6.71484 15 -15c0 -8.28125 -6.71875 -15 -15 -15h-39.3008c3.89062 -7.55078 6.10156 -16.1016 6.10156 -25.1641c0 -30.4219 -24.75 -55.168 -55.168 -55.168s-55.168 24.7461 -55.168 55.168
c0 9.0625 2.21094 17.6133 6.10156 25.1641h-78.6016c3.89062 -7.55078 6.10156 -16.1016 6.10156 -25.1641c0 -30.4219 -24.75 -55.168 -55.168 -55.168s-55.168 24.7461 -55.168 55.168c0 9.49609 2.41406 18.4414 6.66016 26.25
c-10.4219 2.05078 -20.3711 6.95312 -28.7891 14.3242c-11.3516 9.9375 -18.6445 23.2266 -20.5352 37.4219l-42.9375 322.039c-2.21484 16.6211 -12.4062 26.7969 -17.2188 26.7969h-26.7773c-8.28516 0 -15 6.71484 -15 15s6.71484 15 15 15h26.7773
c22.3789 0 43.0039 -23.207 46.957 -52.832l3.66797 -27.5h364.43c15.0742 0 28.6055 -5.97266 38.0977 -16.8164zM224.934 -8.83203c0 13.875 -11.2891 25.1641 -25.168 25.1641c-13.875 0 -25.168 -11.2891 -25.168 -25.1641c0 -13.8789 11.293 -25.168 25.168 -25.168
c13.8789 0 25.168 11.2891 25.168 25.168zM401.668 -8.83203c0 13.875 -11.2891 25.1641 -25.168 25.1641s-25.168 -11.2891 -25.168 -25.1641c0 -13.8789 11.2891 -25.168 25.168 -25.168s25.168 11.2891 25.168 25.168zM472.355 331.09
c-3.71094 4.24219 -9.22266 6.57812 -15.5234 6.57812h-85.0625l-6.03125 -90.5h102.062l9.01953 67.668c0.835938 6.24219 -0.75 12.0117 -4.46484 16.2539zM259.336 126.668h68.3008l6.03516 90.5h-80.3711zM251.301 247.168h84.3711l6.03125 90.5h-96.4336z
M215.203 337.668h-118.805l12.0664 -90.5h112.77zM112.465 217.168l12.0664 -90.5h104.738l-6.03516 90.5h-110.77zM424.699 126.668c14.6523 0 28.6719 12.2695 30.6094 26.7969l8.49219 63.7031h-100.062l-6.03516 -90.5h66.9961zM424.699 126.668z" />
    <glyph glyph-name="001-plus" unicode="&#xf100;" 
d="M437.02 373.02c48.3516 -48.3525 74.9795 -112.641 74.9805 -181.021c0 -68.3789 -26.6289 -132.666 -74.9805 -181.019c-48.3525 -48.3516 -112.64 -74.9795 -181.018 -74.9795c-68.3799 0 -132.668 26.6279 -181.021 74.9795
c-48.3516 48.3535 -74.9805 112.641 -74.9805 181.019c0 68.3799 26.6299 132.668 74.9814 181.021c48.3525 48.3506 112.641 74.9795 181.021 74.9795s132.665 -26.6279 181.018 -74.9795zM256.002 -33.999c124.614 0 225.997 101.383 225.998 225.998
c-0.000976562 124.617 -101.384 226 -225.998 226c-124.617 0 -226.001 -101.384 -226.002 -226c0 -124.615 101.384 -225.998 226.002 -225.998zM400.6 206.999c8.2832 0 15 -6.71582 15 -15c0 -8.2832 -6.7168 -14.999 -15 -14.999h-129.601v-129.601
c0 -8.2832 -6.71582 -15 -15 -15c-8.2832 0 -14.999 6.7168 -14.999 15v129.601h-129.6c-8.2832 0 -15 6.71582 -15 14.999c0 8.28418 6.7168 15 15 15h129.6l0.000976562 129.602c0 8.2832 6.71582 15 15 15c8.2832 0 14.999 -6.7168 14.999 -15l-0.000976562 -129.602
h129.601z" />
    <glyph glyph-name="006-card" unicode="&#xf104;" 
d="M467.691 448c24.4336 0 44.3086 -19.875 44.3086 -44.3086v-256c0 -24.4297 -19.875 -44.3086 -44.3086 -44.3086h-423.383c-24.4336 0 -44.3086 19.8789 -44.3086 44.3086v256c0 24.4336 19.875 44.3086 44.3086 44.3086h423.383zM44.3086 418.461
c-8.14453 0 -14.7695 -6.625 -14.7695 -14.7695v-24.6133h452.922v24.6133c0 8.14453 -6.625 14.7695 -14.7695 14.7695h-423.383zM482.461 320v29.5391h-452.922v-29.5391h452.922zM467.691 132.922c8.14453 0 14.7695 6.625 14.7695 14.7695v142.77h-452.922v-142.77
c0 -8.14453 6.625 -14.7695 14.7695 -14.7695h423.383zM467.691 132.922zM403.691 251.078c24.4336 0 44.3086 -19.8789 44.3086 -44.3086s-19.875 -44.3086 -44.3086 -44.3086c-11.3398 0 -21.6914 4.28516 -29.5391 11.3203
c-7.84375 -7.03125 -18.1953 -11.3203 -29.5352 -11.3203c-24.4336 0 -44.3086 19.8789 -44.3086 44.3086s19.875 44.3086 44.3086 44.3086c11.3398 0 21.6914 -4.28906 29.5352 -11.3203c7.84766 7.03125 18.1992 11.3203 29.5391 11.3203zM344.617 192
c8.14062 0 14.7656 6.625 14.7656 14.7695s-6.625 14.7695 -14.7656 14.7695c-8.14453 0 -14.7695 -6.625 -14.7695 -14.7695s6.625 -14.7695 14.7695 -14.7695zM403.691 192c8.14453 0 14.7695 6.625 14.7695 14.7695s-6.625 14.7695 -14.7695 14.7695
s-14.7695 -6.625 -14.7695 -14.7695s6.625 -14.7695 14.7695 -14.7695zM403.691 192zM137.848 221.539c8.15625 0 14.7695 -6.61328 14.7695 -14.7695s-6.61328 -14.7695 -14.7695 -14.7695h-59.0781c-8.15625 0 -14.7695 6.61328 -14.7695 14.7695
s6.61328 14.7695 14.7695 14.7695h59.0781zM137.848 221.539z" />
    <glyph glyph-name="008-phone" unicode="&#xf106;" 
d="M498.828 70.3662c17.5479 -17.5479 17.5479 -46.0996 0 -63.6484l-23.1465 -23.1445c-63.4326 -63.4346 -166.093 -63.4297 -229.521 0l-198.692 198.796c-63.2764 63.2773 -63.2764 166.24 0.00292969 229.52c5.87207 5.82129 10.0967 10.0088 23.1924 22.9912
c17.501 17.501 46.0537 17.501 63.6025 -0.0458984l63.6318 -63.4326c17.7324 -17.7295 17.4883 -46.1943 0.0166016 -63.665l-28.9307 -28.9307c-13.3271 -13.3271 -13.3252 -34.8945 0 -48.2188l125.4 -125.508c13.2891 -13.2852 34.9209 -13.2891 48.2148 0.00488281
l28.9307 28.9316c17.5479 17.5469 46.1016 17.5469 63.6494 0zM91.833 413.618l-10.5537 -10.4619l84.8096 -84.8105l10.6094 10.6084c5.86328 5.86328 5.86328 15.3525 0 21.2158l-63.6318 63.4316c-5.86816 5.86621 -15.3838 5.86523 -21.2334 0.0166016zM267.381 4.78613
c49.2949 -49.2949 125.997 -51.5742 178.004 -8.27637l-84.5664 84.5664c-25.2197 -22.25 -63.6006 -21.2637 -87.6562 2.79199l-0.00390625 0.00390625l-125.396 125.501c-24.0811 24.0811 -25.0078 62.4648 -2.78711 87.6533l-84.5645 84.5645
c-43.373 -52.1729 -40.6816 -129.048 8.27637 -178.006zM477.613 27.9346c5.84863 5.84766 5.84863 15.3652 -0.000976562 21.2158l-63.6494 63.6494c-5.84961 5.84961 -15.3672 5.84863 -21.2168 0l-10.6074 -10.6084l84.8652 -84.8662z" />
    <glyph glyph-name="004-account" unicode="&#xf102;" 
d="M512 192c0 -140.879 -114.125 -256 -256 -256c-142.461 0 -256 115.766 -256 256c0 141.504 114.512 256 256 256c141.504 0 256 -114.512 256 -256zM256 418c-124.617 0 -226 -101.383 -226 -226c0 -45.5859 13.5586 -89.4023 38.7031 -126.516
c101.152 108.805 273.625 108.609 374.594 0c25.1445 37.1133 38.7031 80.9297 38.7031 126.516c0 124.617 -101.383 226 -226 226zM87.4141 41.5c90.1133 -100.805 247.094 -100.773 337.168 0c-89.7461 100.672 -247.395 100.695 -337.168 0zM87.4141 41.5zM256 177
c-49.625 0 -90 40.375 -90 90v30c0 49.625 40.375 90 90 90s90 -40.375 90 -90v-30c0 -49.625 -40.375 -90 -90 -90zM196 297v-30c0 -33.0859 26.9141 -60 60 -60s60 26.9141 60 60v30c0 33.0859 -26.9141 60 -60 60s-60 -26.9141 -60 -60zM196 297z" />
    <glyph glyph-name="007-mail" unicode="&#xf105;" 
d="M256 388c57.8975 0 105 -47.1025 105 -105c0 -24.8135 -20.1865 -45 -45 -45c-11.5166 0 -22.0342 4.35156 -30.001 11.4941c-7.96777 -7.1416 -18.4834 -11.4941 -29.999 -11.4941c-24.8135 0 -45 20.1865 -45 45s20.1865 45 45 45s45 -20.1865 45 -45
c0 -0.0761719 0.000976562 -0.152344 0.00195312 -0.227539c0.379883 -9.04004 7.44043 -14.7725 14.998 -14.7725c8.27148 0 15 6.72852 15 15c0 41.3555 -33.6445 75 -75 75s-75 -33.6445 -75 -75c0 -25.6689 12.9609 -49.2979 34.6709 -63.207
c22.249 -14.2539 49.8428 -15.6074 75.7031 -3.70898c7.52734 3.46191 16.4336 0.166992 19.8955 -7.3584c3.46387 -7.52539 0.168945 -16.4336 -7.35645 -19.8955c-35.3662 -16.2715 -73.4229 -14.1602 -104.426 5.70312
c-30.3613 19.4521 -48.4873 52.5234 -48.4873 88.4668c0 57.8975 47.1025 105 105 105zM270.789 280.594c-0.155273 1.37109 -0.118164 2.75781 0.105469 4.12109c-0.854492 7.46484 -7.20312 13.2852 -14.8945 13.2852c-8.27148 0 -15 -6.72852 -15 -15s6.72852 -15 15 -15
c7.4502 0 13.6309 5.46484 14.7891 12.5938zM480.999 251.024c0 -0.0107422 0.000976562 -0.0195312 0.000976562 -0.0292969v-269.995c0 -24.793 -20.1611 -45 -45 -45h-360c-24.7842 0 -45 20.1553 -45 45v269.995
c0 0.00976562 0.000976562 0.0185547 0.000976562 0.0292969c0.00585938 3.71094 1.43457 7.52344 4.24609 10.4199c0.0507812 0.0527344 0.0947266 0.110352 0.146484 0.163086l55.6064 55.6055v115.787c0 8.28418 6.71582 15 15 15h300c8.28418 0 15 -6.71582 15 -15
v-115.787l55.6064 -55.6055c2.82617 -2.82715 4.38867 -6.7041 4.39258 -10.583zM421 274.787v-47.5742l23.7871 23.7871zM121 310.995v-113.782l81.2129 -81.2129h107.574l81.2129 81.2129v113.782v0.00976562v106.995h-270v-106.995v-0.00976562zM91 274.787
l-23.7871 -23.7871l23.7871 -23.7871v47.5742zM61 -12.7871l113.787 113.787l-113.787 113.787v-227.574zM82.2139 -34h347.572l-119.999 120h-107.574zM451 -12.7871v227.574l-113.787 -113.787z" />
  </font>
</defs></svg>
